<?xml version="1.0" encoding="UTF-8"?>
<!DOCTYPE suite SYSTEM "http://testng.org/testng-1.0.dtd">
<suite name="Failed suite [Suite]" guice-stage="DEVELOPMENT" verbose="0">
  <listeners>
    <listener class-name="com.tomtom.aomsv2.extentReports.ExtentReporterNG"/>
  </listeners>
  <test thread-count="5" name="Test(failed)" verbose="0">
    <classes>
      <class name="com.tomtom.aomsv2.addFeature.FeatureIdValidations">
        <methods>
          <include name="addFeatureWhenFeatureIdisNull"/>
          <include name="addFeatureWithFeatureIdof255characters"/>
          <include name="addFeatureWhenFeatureIdisEmpty"/>
          <include name="addFeatureWithFeatureIdhasspecialcharacters"/>
          <include name="addFeatureWhenFeatureIdisMissing"/>
          <include name="addFeatureWithFeatureIdgreaterthan256characters"/>
          <include name="startup"/>
          <include name="addFeatureWithFeatureIdof256characters"/>
          <include name="releaseResources"/>
          <include name="addFeatureIdAlreadyPresent"/>
        </methods>
      </class> <!-- com.tomtom.aomsv2.addFeature.FeatureIdValidations -->
      <class name="com.tomtom.aomsv2.addFeature.XRequestIdvalidations">
        <methods>
          <include name="addFeatureWithXRequestIDHasSpecialCharacters"/>
          <include name="addFeatureWithXRequestIDof255characters"/>
          <include name="addFeatureWithXRequestIDgreaterthan256characters"/>
          <include name="startup"/>
          <include name="addFeatureWithXRequestIDof256characters"/>
          <include name="addFeatureXRequestIdisMissing"/>
          <include name="releaseResources"/>
          <include name="addFeatureXRequestIdisEmpty"/>
        </methods>
      </class> <!-- com.tomtom.aomsv2.addFeature.XRequestIdvalidations -->
      <class name="com.tomtom.aomsv2.addFeature.TenantIdValidations">
        <methods>
          <include name="addFeatureTenantIdisnNullAsString"/>
          <include name="addFeatureTenantIdisMissing"/>
          <include name="addFeatureTenantIdisnNull"/>
          <include name="addFeatureWithTenantIdof255characters"/>
          <include name="startup"/>
          <include name="addFeatureWithTenantIdnotindatabase"/>
          <include name="addFeatureWithTenantIdgreaterthan256characters"/>
          <include name="addFeatureWithTenantIdhasspecialcharacters"/>
          <include name="addFeatureWithTenantIdof256characters"/>
        </methods>
      </class> <!-- com.tomtom.aomsv2.addFeature.TenantIdValidations -->
      <class name="com.tomtom.aomsv2.addFeature.DescriptionValidations">
        <methods>
          <include name="releaseResources"/>
          <include name="addFeaturewithDescriptionhasspecialcharacters"/>
          <include name="addFeaturewithDescriptionisNull"/>
          <include name="addFeaturewithDescriptionof1023characters"/>
          <include name="addFeaturewithDescriptionof1024characters"/>
          <include name="startup"/>
          <include name="addFeaturewithDescriptiongreaterthan1024characters"/>
          <include name="addFeaturewithDescriptionisEmpty"/>
        </methods>
      </class> <!-- com.tomtom.aomsv2.addFeature.DescriptionValidations -->
      <class name="com.tomtom.aomsv2.addFeature.MiscellaneousScenarios">
        <methods>
          <include name="addFeatureInvalidRequestFormat"/>
          <include name="addFeatureWithValidData"/>
          <include name="startup"/>
          <include name="addFeatureNotPassingAnyHeadersInTheRequest"/>
          <include name="addFeatureNotPassingAnyParametersInTheRequest"/>
          <include name="releaseResources"/>
        </methods>
      </class> <!-- com.tomtom.aomsv2.addFeature.MiscellaneousScenarios -->
      <class name="com.tomtom.aomsv2.addFeature.MultipleRequests">
        <methods>
          <include name="addFeatureAddMultipleFeatureidsWithOneFeatureIdAlreadyPresent"/>
          <include name="addFeatureAddMultipleFeatureidsofSameFeatureId"/>
          <include name="addFeatureAddDifferentFeatureIdWithSameDescription"/>
          <include name="startup"/>
          <include name="addFeatureAddMultipleFeatureidsUsingSingleRequest"/>
        </methods>
      </class> <!-- com.tomtom.aomsv2.addFeature.MultipleRequests -->
    </classes>
  </test> <!-- Test(failed) -->
</suite> <!-- Failed suite [Suite] -->
